Program Started
貓
貓
貓
貓
貓
貓
貓
貓
貓
貓
狗
狗
狗
狗
狗
狗
狗
狗
狗
狗
動物
動物
動物
動物
動物
動物
動物
動物
動物
動物
帥哥
帥哥
帥哥
帥哥
帥哥
帥哥
帥哥
帥哥
帥哥
帥哥
美食
美食
美食
美食
美食
美食
美食
美食
美食
美食
風景
風景
風景
風景
風景
風景
風景
風景
風景
風景
旅遊
旅遊
旅遊
旅遊
旅遊
旅遊
旅遊
旅遊
旅遊
旅遊
室內設計
室內設計
室內設計
室內設計
室內設計
室內設計
室內設計
室內設計
室內設計
室內設計
汽車
汽車
汽車
汽車
汽車
汽車
汽車
汽車
汽車
汽車
